module gitlab.com/jeremiadelviero/simple-transfer-system

go 1.22.2

require (
	github.com/go-chi/chi/v5 v5.0.12
	github.com/go-chi/render v1.0.3
	github.com/lib/pq v1.10.9
	gorm.io/driver/postgres v1.5.7
	gorm.io/gorm v1.25.9
)

require (
	github.com/ajg/form v1.5.1 // indirect
	github.com/jackc/pgpassfile v1.0.0 // indirect
	github.com/jackc/pgservicefile v0.0.0-20221227161230-091c0ba34f0a // indirect
	github.com/jackc/pgx/v5 v5.4.3 // indirect
	github.com/jinzhu/inflection v1.0.0 // indirect
	github.com/jinzhu/now v1.1.5 // indirect
	golang.org/x/crypto v0.14.0 // indirect
	golang.org/x/text v0.13.0 // indirect
)
